Copynumber • intratumormeth
…
extract segments

homogenize segments

TODO: detect focal events where a detail region copy number is significantly different from its neighborhood

The above run_conumee() call generated a lot of data: 4.7 GB in this case. The is mostly because there is a lot of redundancy in the information that is stored for each sample. To accelerate further analysis and to avoid having to load 4.7 GB into memory, the function postprocess_conumee_files() extracts the essential information and saves it to the output directory.

postprocess_conumee_files(outputDir)

The generated data can now be read in:

segmentCnv <- readRDS(file.path(outputDir, "copynumber", "cnv_segments.Rdata"))
segmentCnv
#> # A tibble: 16,316 × 8
#>    sample_id      chr  start    end log2ratio_mean log2ratio_sd log2ratio_median
#>    <chr>        <dbl>  <int>  <int>          <dbl>        <dbl>            <dbl>
#>  1 GU-HGG-154_1     1 9.37e4 7.75e5        -0.061        0.115           -0.0647
#>  2 GU-HGG-154_1     1 8.25e5 1.11e7        -0.372        0.0788          -0.366 
#>  3 GU-HGG-154_1     1 1.12e7 1.54e7        -0.0402       0.0608          -0.0469
#>  4 GU-HGG-154_1     1 1.55e7 1.61e7         0.160        0.0289           0.159 
#>  5 GU-HGG-154_1     1 1.61e7 2.72e7        -0.0361       0.0527          -0.0332
#>  6 GU-HGG-154_1     1 2.72e7 3.28e7        -0.393        0.0664          -0.389 
#>  7 GU-HGG-154_1     1 3.29e7 1.43e8        -0.0217       0.0472          -0.0218
#>  8 GU-HGG-154_1     1 1.44e8 1.45e8         0.128        0.0627           0.119 
#>  9 GU-HGG-154_1     1 1.45e8 1.52e8         0.261        0.077            0.260 
#> 10 GU-HGG-154_1     1 1.52e8 1.53e8         0.397        0.0724           0.407 
#> # … with 16,306 more rows, and 1 more variable: log2ratio_mad <dbl>
detailCnv <- readRDS(file.path(outputDir, "copynumber", "cnv_detailregions.Rdata"))
detailCnv
#> # A tibble: 3,273,218 × 6
#>    sample_id    region   log2ratio_median   chr   start     end
#>    <chr>        <chr>               <dbl> <dbl>   <int>   <int>
#>  1 GU-HGG-154_1 SAMD11             -0.326     1  859719  879958
#>  2 GU-HGG-154_1 NOC2L              -0.377     1  879958  895988
#>  3 GU-HGG-154_1 KLHL17             -0.338     1  894587  901062
#>  4 GU-HGG-154_1 PLEKHN1            -0.312     1  900550  910223
#>  5 GU-HGG-154_1 AGRN               -0.287     1  954619  990557
#>  6 GU-HGG-154_1 C1orf159           -0.306     1 1017383 1053027
#>  7 GU-HGG-154_1 TTLL10             -0.270     1 1108521 1133255
#>  8 GU-HGG-154_1 SDF4               -0.288     1 1152547 1168550
#>  9 GU-HGG-154_1 FAM132A            -0.274     1 1177886 1183528
#> 10 GU-HGG-154_1 UBE2J2             -0.432     1 1189466 1210611
#> # … with 3,273,208 more rows
…
